…
``` r
instacart %>% 
  group_by(aisle_id,aisle) %>%
  summarize(
    n_aisle = n(),
  ) %>% arrange(desc(n_aisle))
```

    ## `summarise()` has grouped output by 'aisle_id'. You can override using the
    ## `.groups` argument.

    ## # A tibble: 134 × 3
    ## # Groups:   aisle_id [134]
    ##    aisle_id aisle                         n_aisle
    ##       <int> <chr>                           <int>
    ##  1       83 fresh vegetables               150609
    ##  2       24 fresh fruits                   150473
    ##  3      123 packaged vegetables fruits      78493
    ##  4      120 yogurt                          55240
    ##  5       21 packaged cheese                 41699
    ##  6      115 water seltzer sparkling water   36617
    ##  7       84 milk                            32644
    ##  8      107 chips pretzels                  31269
    ##  9       91 soy lactosefree                 26240
    ## 10      112 bread                           23635
    ## # … with 124 more rows
…
  separate(date, into = c("year","month","day"),sep = "-") %>%
  mutate(
    prcp = prcp / 10,
    tmax = as.numeric(tmax) / 10,
    tmin = as.numeric(tmin) / 10,
    snow = snow / 10
  ) %>% 
  group_by(snow) %>%
  summarize(
    n_snow = n()
  ) %>% 
  arrange(desc(n_snow))
```

    ## # A tibble: 282 × 2
    ##     snow  n_snow
    ##    <dbl>   <int>
    ##  1   0   2008508
    ##  2  NA    381221
    ##  3   2.5   31022
    ##  4   1.3   23095
    ##  5   5.1   18274
    ##  6   7.6   10173
    ##  7   0.8    9962
    ##  8   0.5    9748
    ##  9   3.8    9197
    ## 10   0.3    8790
    ## # … with 272 more rows
…
